{
    "total_count": 2,
    "next_page": 2,
    "items": [
        {
            "published_at": "Sun, 18 Jun 2023 02:02:23 GMT",
            "_id": "adb3fd5e-9c37-49db-a13c-a62ad4c090d9",
            "contents": null,
            "title": "Welcome to Arkham: Revived Redux by KiwifruitDev! Join the Discord to find matches: https://discord.gg/7BneAcgvZh"
        }
    ],
    "page": 1,
    "pages": 1
}
